<?xml version="1.0" encoding="UTF-8"?>
<session version="1.0">
<refactoring comment="Delete resource &apos;Elab_Week_7_Stack&apos;" deleteContents="true" description="Delete resource &apos;Elab_Week_7_Stack&apos;" element1="/Elab_Week_7_Stack" flags="7" id="org.eclipse.ltk.core.refactoring.delete.resources" resources="1" stamp="1444353941918"/>
</session>