<?xml version="1.0" encoding="UTF-8"?>
<session version="1.0">
<refactoring comment="Delete resource &apos;UVA_Easy_Encryption&apos;" deleteContents="true" description="Delete resource &apos;UVA_Easy_Encryption&apos;" element1="/UVA_Easy_Encryption" flags="7" id="org.eclipse.ltk.core.refactoring.delete.resources" resources="1" stamp="1443147761838"/>
</session>